{
  "name":"Halo 5 : Guardians",
  "path":"/project/microsoft",
  "imagePath":"/content/project/microsoft/images/",
  "safename":"microsoft",
  "thumb":"/content/projects/microsoft/images/1.jpg",
  "content":"content.md",
  "client": "Microsoft"
}
